…
``` r
library(tidyr)
library(dplyr)
library(ggplot2)
library(knitr)

# View and Import Dataset Question 2 CSV

q2 <- read.csv("question2.csv")
q2data<- tbl_df(q2)
q2data
```

    ## # A tibble: 151 × 5
    ##       id   sex handedness first_stumble final_position
    ##    <int> <int>      <int>         <int>          <int>
    ## 1      1     1          1             1              1
    ## 2      2     1          1             1              1
    ## 3      3     0          1             1              1
    ## 4      4     1          1             1              0
    ## 5      5     1          1             0              0
    ## 6      6     1          0             0              1
    ## 7      7     0          0             0              0
    ## 8      8     0          0             0              0
    ## 9      9     1          0             1              1
    ## 10    10     0          0             0              0
    ## # ... with 141 more rows
…
years <- sample(baz, 150, replace = TRUE,prob = c(0.05, 0.05, 0.08, 0.08, 0.1, 0.13, 0.14, 0.13, 0.12, 0.12))

projectmark <- sample(bar, 150, replace = TRUE)

finalmark <- sample(foo, 150, replace = TRUE)

q4plot <- data_frame(year = years,projectmark = round(projectmark, 1),finalmark = round(finalmark, 1)) %>%
arrange(years)

# View
q4plot
```

    ## # A tibble: 150 × 3
    ##     year projectmark finalmark
    ##    <int>       <dbl>     <dbl>
    ## 1   1997        62.8      60.6
    ## 2   1997        63.6      60.7
    ## 3   1997        74.6      57.8
    ## 4   1997        75.1      61.8
    ## 5   1997        62.0      61.4
    ## 6   1997        71.0      58.1
    ## 7   1997        78.2      63.2
    ## 8   1998        63.3      56.9
    ## 9   1998        69.5      61.9
    ## 10  1998        64.5      62.7
    ## # ... with 140 more rows
…
